{
    "type": "ticker",
    "sequence": 395474229,
    "product_id": "LTC-EUR",
    "price": "241.03000000",
    "open_24h": "244.38000000",
    "volume_24h": "26926.88332587",
    "low_24h": "241.03000000",
    "high_24h": "248.00000000",
    "volume_30d": "2885272.65252122",
    "best_bid": "241.02",
    "best_ask": "241.21",
    "side": "sell",
    "time": "2017-12-26T17:21:51.244000Z",
    "trade_id": 1682115,
    "last_size": "0.05544123"
}